{
    "particles": {
    	"data":[
    			{
		        "make": true,
		        "amount": 750,
		        "size": {
		        	"base": 15, "variation": 25
		        },
		        "range":{
		        	"x":  1000, 	"y": 1500, 	"z": 1000,
		        	"vx": 0, 		"vy":1000, 	"vz": 0,
		        	"floor": 8, 	"ceiling": 1000
		        },
		        "type":{
		        	"is": "texture",
		        	"image": "particle.png"
		        },	
		        "physics":{
		        	"gravity": "global",
		        	"jitter": 1,		        	
		        	"attributes": 	{"weight": 1.5, "friction": 0.5, "walls":{"x": false, "y": false, "z": false} },		        	
		            "windVector":  	{"x": 0,	"y": 0, 	"z": 0},
		            "velocitySpd": 	{"x": 0, 	"y": 0.2,		"z": 0},
		            "maxVelocity": 	{"x": 1,	"y": 1.5, 	"z": 0.1}      	        	
		        },			        	       
		        "animation": 
					{
		            "rotationSpd": {"x": 0, 	"y": 0.001, 	"z": 0}     
		        	}
	        	}	        	
        ]
    }
}